3.384771049022674561e-01
1.866959780454635620e-01
1.569591909646987915e-01
1.878227740526199341e-01
1.544152647256851196e-01
1.468215882778167725e-01
1.936873197555541992e-01
1.640225499868392944e-01
1.021843925118446350e-01
1.205081194639205933e-01
1.587727367877960205e-01
1.365790069103240967e-01
1.504688262939453125e-01
1.801753342151641846e-01
1.471256166696548462e-01
1.361873000860214233e-01
1.577045917510986328e-01
1.747872531414031982e-01
1.843520551919937134e-01
1.618878245353698730e-01
1.555081307888031006e-01
1.426506936550140381e-01
1.551423370838165283e-01
1.554166972637176514e-01
1.386693120002746582e-01
1.256315112113952637e-01
1.494765281677246094e-01
1.252398788928985596e-01
1.316230595111846924e-01
1.661542803049087524e-01
1.768043041229248047e-01
1.391603350639343262e-01
1.449764966964721680e-01
1.379924267530441284e-01
1.049037575721740723e-01
1.436332911252975464e-01
1.286081224679946899e-01
1.462728083133697510e-01
1.496796011924743652e-01
1.332652121782302856e-01
1.433511525392532349e-01
1.395360976457595825e-01
1.551980674266815186e-01
1.316317617893218994e-01
1.488283127546310425e-01
1.159667819738388062e-01
1.331855654716491699e-01
1.027285605669021606e-01
1.187372654676437378e-01
1.140532344579696655e-01
1.535176485776901245e-01
1.064841896295547485e-01
1.636456549167633057e-01
1.368752419948577881e-01
1.816517710685729980e-01
1.281849294900894165e-01
1.065519452095031738e-01
1.882444173097610474e-01
1.182237640023231506e-01
1.324191689491271973e-01
1.290811449289321899e-01
1.469559669494628906e-01
1.497627198696136475e-01
1.461882591247558594e-01
1.022922024130821228e-01
1.574859321117401123e-01
1.222987920045852661e-01
1.179923638701438904e-01
1.229425892233848572e-01
1.148094683885574341e-01
1.088656559586524963e-01
1.184008941054344177e-01
1.460259109735488892e-01
9.204039722681045532e-02
1.134091019630432129e-01
1.197039708495140076e-01
1.347330808639526367e-01
1.363432705402374268e-01
9.475447237491607666e-02
1.102100610733032227e-01
1.179440394043922424e-01
1.669731736183166504e-01
1.238923892378807068e-01
1.180500984191894531e-01
1.002905815839767456e-01
1.179925203323364258e-01
1.095504164695739746e-01
1.656974107027053833e-01
1.534556448459625244e-01
9.730632603168487549e-02
1.326692551374435425e-01
1.495772153139114380e-01
1.050744876265525818e-01
1.691308319568634033e-01
1.558645069599151611e-01
1.902186572551727295e-01
1.431210488080978394e-01
1.807528883218765259e-01
1.494221389293670654e-01
1.043767184019088745e-01
