4.893035888671875000e-01
2.236721217632293701e-01
2.316008359193801880e-01
3.050380945205688477e-01
2.848277091979980469e-01
2.389444112777709961e-01
2.065420597791671753e-01
2.337889671325683594e-01
2.913555204868316650e-01
2.778455018997192383e-01
1.731482893228530884e-01
2.248721122741699219e-01
2.828921675682067871e-01
2.942407727241516113e-01
2.183067351579666138e-01
2.181537598371505737e-01
8.712699264287948608e-02
1.943597495555877686e-01
1.786022186279296875e-01
2.139764279127120972e-01
1.843561828136444092e-01
2.018858939409255981e-01
1.886384487152099609e-01
1.166685670614242554e-01
1.664965301752090454e-01
1.421938687562942505e-01
1.842586994171142578e-01
1.170842200517654419e-01
1.722223460674285889e-01
1.418835222721099854e-01
1.653283536434173584e-01
1.630098670721054077e-01
1.481734216213226318e-01
1.512275338172912598e-01
1.868821829557418823e-01
1.553373634815216064e-01
1.970511972904205322e-01
1.555078327655792236e-01
1.810024231672286987e-01
1.864966899156570435e-01
1.374230682849884033e-01
9.111575782299041748e-02
7.423229515552520752e-02
1.656225919723510742e-01
1.567958742380142212e-01
8.573032170534133911e-02
1.677619963884353638e-01
1.946706026792526245e-01
1.883354187011718750e-01
2.134419977664947510e-01
9.345806390047073364e-02
1.763214170932769775e-01
1.586381793022155762e-01
2.028082162141799927e-01
1.407603621482849121e-01
2.935028672218322754e-01
2.062032669782638550e-01
2.771981954574584961e-01
2.596781849861145020e-01
1.819043457508087158e-01
1.525863409042358398e-01
1.340790688991546631e-01
2.442881613969802856e-01
2.161673009395599365e-01
1.903840452432632446e-01
1.740963011980056763e-01
1.307205110788345337e-01
1.843008995056152344e-01
1.983417719602584839e-01
1.837838888168334961e-01
1.158270239830017090e-01
1.589252650737762451e-01
1.104916110634803772e-01
1.823847889900207520e-01
2.284858226776123047e-01
1.121188774704933167e-01
2.364275008440017700e-01
1.853542029857635498e-01
1.735096722841262817e-01
2.181073725223541260e-01
2.059564292430877686e-01
1.543875187635421753e-01
1.634245514869689941e-01
1.156300753355026245e-01
1.829308569431304932e-01
2.110441029071807861e-01
1.627645045518875122e-01
1.148236989974975586e-01
1.604025512933731079e-01
1.864688098430633545e-01
1.665924489498138428e-01
2.392641007900238037e-01
1.621558219194412231e-01
1.822799593210220337e-01
2.280138283967971802e-01
1.119066253304481506e-01
1.144699677824974060e-01
1.631216704845428467e-01
2.094071209430694580e-01
1.719495654106140137e-01
